{
  "dev": {
    "awscloudformation": {
      "AuthRoleName": "amplify-cedu-dev-190839-authRole",
      "UnauthRoleArn": "arn:aws:iam::589976933733:role/amplify-cedu-dev-190839-unauthRole",
      "AuthRoleArn": "arn:aws:iam::589976933733:role/amplify-cedu-dev-190839-authRole",
      "Region": "ap-southeast-1",
      "DeploymentBucketName": "amplify-cedu-dev-190839-deployment",
      "UnauthRoleName": "amplify-cedu-dev-190839-unauthRole",
      "StackName": "amplify-cedu-dev-190839",
      "StackId": "arn:aws:cloudformation:ap-southeast-1:589976933733:stack/amplify-cedu-dev-190839/a539a6d0-d352-11eb-bb9c-0a07c0be2c3a",
      "AmplifyAppId": "d398prihm2udn3"
    },
    "categories": {
      "auth": {
        "cedu584c7e3b": {}
      }
    }
  }
}